1 10 20
100 200 125
201 210 89
900 1000 174
1 2 2
1 3 8
1 4 8
1 5 8
1 6 9
1 7 17
1 8 17
1 9 20
1 20 21
1 25 24
1 30 112
1 35 112
1 40 112
1 45 112
1 50 112
1 55 113
1 60 113
1 65 113
1 70 113
1 75 116
1 80 116
1 85 116
1 90 116
1 95 116
1 100 119
10 21 21
10 32 112
10 43 112
10 54 113
10 65 113
10 76 116
10 87 116
10 98 119
10 100 119
100 110 114
100 125 114
100 130 122
100 145 122
100 150 122
100 165 122
100 170 122
100 185 125
100 190 125
1000 1101 169
1000 1202 182
1000 1303 182
1000 1404 182
1000 1505 182
1000 1606 182
1000 1707 182
1000 1808 182
1000 1909 182
1000 2010 182
10000 10100 224
10000 10200 224
10000 10300 242
10000 10400 242
10000 10500 255
10000 10600 255
10000 10700 255
10000 10800 255
10000 10900 255
10000 20000 279
100000 110025 354
100000 120050 354
100000 130075 354
100000 140000 354
100000 150025 375
100000 160050 383
100000 170075 383
100000 180000 383
100000 190025 383
100000 200050 383
999999 900000 507
999999 800000 525
999999 700000 525
999999 600000 525
999999 500000 525
999999 400000 525
999999 300000 525
999999 200000 525
999999 100000 525
357063 630663 509
235500 555957 470
357369 850875 525
199363 314364 443
842470 64140 525
630668 300084 509
935812 756291 525
871600 338455 525
460040 102749 449
142397 47259 354
815010 515096 509
298028 233604 407
630057 857796 525
178074 695624 509
584706 77003 470
174144 817489 509
180925 822129 509
408123 669938 509
537119 679034 509
553014 177277 470
381783 858135 525
795526 28394 509
596860 381042 470
755505 697374 504
516172 967388 525
326181 428956 449
966598 951961 414
671425 509057 509
462983 306022 449
686824 126841 509
151592 654178 509
737890 984084 525
331353 835094 509
422035 66512 449
171409 592415 470
115319 689045 509
521786 222749 470
90565 479050 449
909927 402350 525
624459 748112 509
777099 524253 509
746959 721832 424
546807 552514 377
329077 540333 470
469102 279221 449
423718 751562 509
140110 889277 525
824020 324967 509
636134 821308 504
147623 735711 509
93205 422101 449
22951 861678 525
531560 132096 470
118171 832093 509
936580 896401 476
816299 383434 509
493508 312105 449
166575 143499 383
320531 646616 509
704424 845748 525
605830 827405 509
786528 100921 509
694251 888110 525
215999 851469 525
489349 370579 449
