1 10 20
100 200 125
201 210 89
900 1000 174
1302 121 182
1229 6035 238
3738 7380 262
3590 8626 262
639005 37039 509
163006 92061 383
798009 86014 509
407000 14013 443
741009 26020 509
114009 51072 354
3393 4827 238
8768 5405 262
3414 5636 238
26042 8164 282
40033 6304 324
93057 3917 351
76028 2970 340
19077 6028 279
39012 3038 324
58075 3528 340
4002 7397 262
72061 5393 340
25059 6342 282
23009 8484 279
16041 1556 276
70058 7386 340
3037 5275 238
5270 8551 262
3505 832 217
7699 9191 252
829 3729 238
9048 6655 257
8602 7060 252
5000 3159 238
1596 983 182
1167 9033 262
6230 1232 262
2142 3487 217
637 533 137
6142 8995 262
9451 8275 260
9552 81693 351
3908 33610 308
7514 98665 351
8095 88671 351
5300 24666 282
3379 5668 238
2250 25692 282
4984 82608 351
5155 87637 351
3125 81628 351
2282 6870 262
5306 4737 210
7301 660 262
271 897 179
2046 6145 238
3766 4854 215
3147 4039 238
4034 3257 238
7273 7998 252
69959 8414 340
39735 3787 324
39873 2147 324
19173 9592 279
79279 4087 351
49071 6136 324
19507 7878 279
59542 1367 340
7948 7101 239
99462 6227 351
69100 922 340
79758 999999 525
49689 490 324
19973 5945 279
39969 27 324
29234 5367 308
2394 5924 238
1090 7122 262
2942 7902 262
6634 5251 262
6283 235 262
3752 3150 238
1317 6198 262
3315 6359 262
102 790 171
9588 9673 185
5282 6823 262
1963 9389 262
8369 8697 203
5171 2359 238
4218 6085 236
3774 441 238
4396 4081 215
7134 8314 252
9207 2344 262
5808 4317 236
28 2482 209
6650 7086 257
752 5273 238
8607 2270 262
9002 6897 257
8829 8842 172
3465 2283 217
7331 8072 252
1808 4469 238
1132 6371 262
9337 1379 262
6658 5448 262
1832 7527 262
5995 1374 238
51 8352 262
1727 4896 238
8359 6737 257
8564 6911 257
5076 1283 238
182 5754 238
9531 7576 260
1155 1748 182
6356 6510 200
7978 2179 262
8277 7174 252
223 6743 262
211 6370 262
7641 4568 262
909 337 179
7366 2566 262
688 6907 262
5632 7437 262
8477 295 262
445 9548 262
6946 2868 262
9930 855 262
8682 2788 262
3478 2758 217
8213 1453 262
9752 79 262
8799 3073 262
49 8584 262
137 6150 238
8348 853 262
7373 9034 252
6169 5506 236
7439 7016 239
204 1655 182
6376 6896 244
5871 4194 236
7871 1305 262
3157 9432 262
3474 7535 262
9763 4504 262
7098 3461 262
2737 2365 209
107 9229 262
5177 9064 262
5582 1023 238
8861 7490 252
3557 9006 262
3697 9492 262
3014 4179 238
7170 2694 262
9866 7877 260
7961 1406 262
4677 2192 238
4305 9423 262
9707 5728 262
991 9812 262
4649 5105 210
1775 4791 238
7855 7063 239
1904 2241 183
312 1277 182
1243 7139 262
1672 6071 238
8198 9799 260
6999 654 262
73076 5084 340
73480 16908 340
1343 54091 340
43251 63985 340
13962 78960 351
13849 82984 351
83461 12955 351
63238 75919 330
53933 10963 340
43877 94987 351
2161 176 182
9311 2813 262
2164 1933 175
1105 2849 209
6151 6645 262
2080 911 182
7858 1519 262
8295 472 262
1638 7987 262
1917 2492 209
5804 6056 218
2001 2572 209
3134 2367 217
8223 499 262
9933 680 262
5585 1780 238
4286 1529 238
4807 7673 262
8411 9954 260
1802 480 182
1119 8465 262
5033 6789 262
9594 1626 262
5372 8581 262
3936 702 238
1721 3589 217
9083 9170 198
61 728 171
4383 5124 210
2460 6501 262
1909 2474 209
9835 317 262
7254 2376 262
3443 7120 262
872 4995 238
6232 75833 340
262 2162 182
701 9719 262
34005 162366 383
5231 9729 262
883 455 179
5210 4284 215
2562 8069 262
2256 8181 262
5648 6846 262
8073 9310 260
4619 1398 238
