............
----------------------------------------------------------------------
Ran 12 tests in 927.566s

OK
Name             Stmts   Miss Branch BrPart  Cover   Missing
------------------------------------------------------------
Collatz.py          60      2     26      1    97%   44-45, 43->44
TestCollatz.py     348      0      0      0   100%
------------------------------------------------------------
TOTAL              408      2     26      1    99%
